{
    "using_ios": true,
    "using_android": true,
    "firestore": true,
    "realtimedb": true,
    "remote_config": true,
    "messaging": true,
    "crash_reporting": true,
    "storage": true,
    "facebook_auth": false,
    "google_auth": false,
    "admob": false,
    "invites": false
}